p8105 Homework 1
…
set.seed(1234)

#Create the dataframe with five variables 
problem_two_df <- tibble(
  x = rnorm(1000),
  y = rnorm(1000),
  prob_two_logical = ifelse(x + y > 0, TRUE, FALSE), 
  prob_two_numeric = as.numeric(prob_two_logical),
  prob_two_factor = as.factor(prob_two_logical)
)

problem_two_df

## # A tibble: 1,000 x 5
##         x      y prob_two_logical prob_two_numeric prob_two_factor
##     <dbl>  <dbl> <lgl>                       <dbl> <fct>          
##  1 -1.21  -1.21  FALSE                           0 FALSE          
##  2  0.277  0.301 TRUE                            1 TRUE           
##  3  1.08  -1.54  FALSE                           0 FALSE          
##  4 -2.35   0.635 FALSE                           0 FALSE          
##  5  0.429  0.703 TRUE                            1 TRUE           
##  6  0.506 -1.91  FALSE                           0 FALSE          
##  7 -0.575  0.939 TRUE                            1 TRUE           
##  8 -0.547 -0.224 FALSE                           0 FALSE          
##  9 -0.564 -0.674 FALSE                           0 FALSE          
## 10 -0.890  0.446 FALSE                           0 FALSE          
## # ... with 990 more rows
…
